Type	Priority	Fail Chance	Actor Race	Target Race	Text	Conditional	Success	Notes
Meet		0.35	Fairy	Demi-Human	[ActorName] introduced themselves to [TargetName]. "Ah, it’s always interesting to meet another demi-human"			
Meet		0.35	Fairy	Fairy	[ActorName] introduced themselves to [TargetName]. "A fairy?  We should have tea together later!"			
Meet		0.35	Fairy	Fairy	[ActorName] introduced themselves to [TargetName]. "Oh cool, you're a fairy too!  It's nice to meet you."			
Meet		0.35	Fairy	Oni	[ActorName] introduced themselves to [TargetName]. "An oni?  You're really strong!"			
Meet		0.35	Fairy	Demi-Fox	[ActorName] introduced themselves to [TargetName]. "A demi-fox?  You have a very fluffy tail!"			
EatFood	10		Fairy		[ActorName] ate a small plate of food, consisting of mushrooms, frog legs, and other fairy treats.			
Rest			Fairy		[ActorName] curled [ActorHis] [TargetCustom-Wing Material] wings and settled for some rest.			
Rest			Fairy		[ActorName] slept in [ActorHis] bed and dreamed of being the strongest.			
Rest			Fairy		[ActorName] slept in [ActorHis] bed and dreamed of being gigantic.			
Rest			Fairy		[ActorName] slept in [ActorHis] bed and dreamed of mastering fairy magic.			
Rest			Fairy		[ActorName] slept in [ActorHis] bed and dreamed of befriending a lot of animals.			
Shower		0.1	Fairy		[ActorName] washes themselves in the shower, even washing [ActorHis] [TargetCustom-Wing Material] [TargetCustom-Wing Color] wings.			
Scream			Fairy		"Just because I'm small doesn't mean I'm free for you to eat!" shouted [ActorName]	[VoreKnowledge]		
GrewBigger			Fairy		[ActorName] feels just a little bit stronger after digesting their prey.			
GrewBigger			Fairy		[ActorName] feels a little bit of heft to [ActorHis] chest while they realize [ActorHis] prey was absorbed.	[ActorHasBoobs]		
TreatWounds			Fairy		[ActorName] used a combination of fairy magic and medical supplies to mend [ActorHis] body's wounds.			
TreatWounds			Fairy		[ActorName] practiced their use of healing magic to make use of the medical facility to its fullest capacity.			
Talk			Fairy	Fairy	[ActorName] discussed secret fairy magic rituals with [TargetName].	[TargetFullyClothed] || s.Actor.Personality.SexDrive < Rand.NextFloat(0, 1)	Yes	
Talk			Fairy	Fairy	[ActorName] talked about interesting fairy cooking recipes with [TargetName].	[TargetFullyClothed] || s.Actor.Personality.SexDrive < Rand.NextFloat(0, 1)	Yes	
Talk			Fairy	Oni	[ActorName] talked about ancient magic with [TargetName].	[TargetFullyClothed] || s.Actor.Personality.SexDrive < Rand.NextFloat(0, 1)	Yes	
Talk			Fairy	Oni	[ActorName] recalled some old stories with [TargetName].	[TargetFullyClothed] || s.Actor.Personality.SexDrive < Rand.NextFloat(0, 1)	Yes	
AskWait			Fairy		"Hey, listen!" [ActorName] exclaimed to [TargetName], getting [TargetHis] attention.		Yes	
PreyWillingYell			Fairy		"Mmm, I could practically live here!" [ActorName] says from within [TargetName]	[TargetDigestsPrey] == false		
PreyWillingSquirm			Fairy		[ActorName]'s wings attempt to flutter with pleasure, as [ActorName] squirms within [TargetName].			
PreyStruggle			Fairy		[ActorName] flaps [ActorHis] wings in both fear and fury as they attempt to squirm out of their confines.			
PreyViolentStruggle			Fairy		[ActorName]'s wings are fiercely beating against the walls of [TargetName]'s insides, as [ActorName] makes an effort to escape.			
PreyBeg			Fairy	Fairy	"Let me out [TargetName]!  This isn't the way to get stronger!" shouts [ActorName]	[TargetDigestsPrey]	No	
PreyBeg			Fairy		"I wasn't supposed to be snuffed out by you!  Let me out [TargetName]!" [ActorName] shouts, fearing about their future.	[TargetDigestsPrey]	No	
Compliment				Fairy	[ActorName] compliments [TargetName]'s [TargetCustom-Wing Material] [TargetCustom-Wing Color] wings.		Yes	
Compliment				Fairy	[ActorName] compliments [TargetName] on [TargetHis] magic capabilities.		Yes	
Insult				Fairy	[ActorName] calls [TargetName]'s magic abilities a disappointment.			
Insult				Fairy	[ActorName] calls [TargetName]'s wings frail and pitiful.			
UnexpectedDigestion			Fairy		"Wait, no... you can't digest me [TargetName]!  I'll melt!" [ActorName] shouts.			
PlayfulTeasePrey			Fairy		"I'll definitely use you to get stronger!" [ActorName] tells [TargetName].	[TargetIsActorPrey] && [ActorDigestsPrey]		
PlayfulTeasePrey			Fairy		"Thanks [TargetName] for being my food, now I won't have to find someone else to eat for a while." [ActorName] says, patting [ActorHis] middle.	[TargetIsActorPrey] && [ActorDigestsPrey]		
PlayfulTeasePrey			Fairy		"Oh, you look like you're having fun from out here, [TargetName]!  I hope I can join you soon." says [ActorName]	[ActorIsBeingEaten] == false && s.Actor.Personality.Voraphilia > .5f && s.Actor.Personality.PreyWillingness > .7f		
TauntPrey		0.5	Fairy		"Hmph, it must be embarrassing to be eaten by a fairy like me! Huh [TargetName]?" [ActorName] taunts.	[TargetIsActorPrey]		
TauntPrey		0.5	Fairy	Oni	"Mmm you onis act tough, but you're weak when you find yourselves stuck inside of a measly fairy.  Right [TargetName]?" [ActorName] proudly taunts.	[TargetIsActorPrey]		
PreyConvinceToSpare			Fairy		[TargetName] doesn't want to stop digesting [ActorName]. "Stop digesting you?  But how am I supposed to get stronger then?"		No	
TorsoOralVore				Fairy	[ActorName] gulps down [TargetName]'s torso, stuffing [TargetHis] wings into [ActorName]'s mouth.			
HeadDescription				Fairy	[TargetName]'s [TargetEyeColor] eyes shine, and [TargetHeHas] [TargetHairLength] [TargetHairStyle] [TargetHairColor] hair.  Below, [TargetHeHas] a pair of [TargetCustom-Wing Material] [TargetCustom-Wing Color] wings fluttering about.			